[
   {
      "formatted_address": "Akwanga, Nigeria",
      "geometry": {
         "location": {
            "lat": 8.9066616,
            "lng": 8.407457300000033
         },
         "viewport": {
            "south": 8.8906685,
            "west": 8.383512500000052,
            "north": 8.9250106,
            "east": 8.428144599999996
         }
      },
      "icon": "https://maps.gstatic.com/mapfiles/place_api/icons/geocode-71.png",
      "id": "167eb3ace7e0587e9d483849c71a82b4423a365f",
      "name": "Akwanga",
      "photos": [
         {
            "height": 1080,
            "html_attributions": [
               "Emmanuel F. Byo"
            ],
            "width": 1620
         }
      ],
      "place_id": "ChIJlfPVpbCcURARUzr6_rsVGHQ",
      "reference": "CmRbAAAAXYiS4Kucpp_AgvU4k7lpPmD-lns32M497xVyhmknjHOT4wJbcBxHDwrSZrqf81QOpfpZ9HzTpYQGt6b4zuROmC4JaBqJXt_co5i80D9QZRXZjcfKD-n3dLaj0PKRTwDKEhB7YX2t26hWLabBm09qJjzKGhQ_sONlVN2PEMJdtITLZm7FyfXrXA",
      "types": [
         "locality",
         "political"
      ],
      "html_attributions": []
   },
   {
      "formatted_address": "Yashi, Nigeria",
      "geometry": {
         "location": {
            "lat": 9.2093438,
            "lng": 8.597172799999953
         },
         "viewport": {
            "south": 9.2050106,
            "west": 8.593786899999941,
            "north": 9.215908299999999,
            "east": 8.599827300000015
         }
      },
      "icon": "https://maps.gstatic.com/mapfiles/place_api/icons/geocode-71.png",
      "id": "bc31de957cb4c698bd14e55485f08116c7b79b69",
      "name": "Yashi",
      "place_id": "ChIJh8YXeA3RUxARlcwDmsxQHYM",
      "reference": "CmRbAAAAxkwBG4x-swQvYPc8auU14GLphayVzlUgqps_FcufUDQOt0kk05SNYhkJLphgPCG2z1HbPyz13xqFeOgbvGVqtyi8zpl1_nCg9AKFF9nVRI7PNrXkZmAHroeJt5yxQGWJEhBsXCggV8c8pG30kJU3f1oEGhQ_7khZmuPDMVsHXx-RjALv-PghXg",
      "types": [
         "locality",
         "political"
      ],
      "html_attributions": []
   },
   {
      "formatted_address": "Akwanga, Nigeria",
      "geometry": {
         "location": {
            "lat": 8.9113457,
            "lng": 8.406748500000049
         },
         "viewport": {
            "south": 8.909996719708499,
            "west": 8.405399519708453,
            "north": 8.912694680291503,
            "east": 8.40809748029153
         }
      },
      "icon": "https://maps.gstatic.com/mapfiles/place_api/icons/generic_business-71.png",
      "id": "bcb1aa8a25171b4d14981a29dd34f2206153a26e",
      "name": "Motor Park",
      "photos": [
         {
            "height": 885,
            "html_attributions": [
               "Mark Love"
            ],
            "width": 856
         }
      ],
      "place_id": "ChIJ-ShxEK6cURAR_RS-rvxpZrc",
      "plus_code": {
         "compound_code": "WC64+GM Akwanga, Nigeria",
         "global_code": "6FWCWC64+GM"
      },
      "rating": 1,
      "reference": "CmRSAAAAdnzUBgqFO7xW3B7fD1pI-C4cDe1UbE2k8uxkb_jTIg0mfV_57q9ypBX2XGgK6ynJlb0-PASzQZpb_v4tkoDtgfIx99tUMPmtCHuqzMcE2ibX3lOizSzykpCB8Yv_WEXPEhAa9WUw5fHQt-Dl9FigD_qpGhTIBYH2WUj5c5sNrmPwzR6i4Ybu_g",
      "types": [
         "parking",
         "point_of_interest",
         "establishment"
      ],
      "html_attributions": []
   },
   {
      "formatted_address": "A 234, Akwanga, Nigeria",
      "geometry": {
         "location": {
            "lat": 8.911876699999999,
            "lng": 8.3878555
         },
         "viewport": {
            "south": 8.910527719708497,
            "west": 8.386506519708519,
            "north": 8.913225680291502,
            "east": 8.389204480291482
         }
      },
      "icon": "https://maps.gstatic.com/mapfiles/place_api/icons/worship_general-71.png",
      "id": "131af0b5e07734af5ccc879097e13444c695e428",
      "name": "St. Patrick's Catholic Church",
      "place_id": "ChIJIx1Sm1GbURARnmbnMfbqrR8",
      "plus_code": {
         "compound_code": "W96Q+Q4 Akwanga, Nigeria",
         "global_code": "6FWCW96Q+Q4"
      },
      "rating": 4.5,
      "reference": "CmRRAAAA9uKaLLLszOyFhwkuuR2IoC_U6i39gaY2bVVvTjmEpjoOawrz4AfVUPC-_IE7yOrmkYokBX9vDapVaIB2lk4831hsyVtYY5W-slQl7Fw19zGgenGQiR-vh9-iTce7ClvdEhBrIM8m6d1c9-Yp3G-S0iKGGhThfejUOWpSKLJ3XtRgz0KaPAluyA",
      "types": [
         "church",
         "place_of_worship",
         "point_of_interest",
         "establishment"
      ],
      "html_attributions": []
   },
   {
      "formatted_address": "Nigeria",
      "geometry": {
         "location": {
            "lat": 9.081999,
            "lng": 8.675277100000017
         },
         "viewport": {
            "south": 9.080650019708498,
            "west": 8.673928119708535,
            "north": 9.083347980291503,
            "east": 8.676626080291499
         }
      },
      "icon": "https://maps.gstatic.com/mapfiles/place_api/icons/school-71.png",
      "id": "59501f1b43eedc10d42c6423799b44f7e9cfe4d2",
      "name": "Mkar University",
      "photos": [
         {
            "height": 3120,
            "html_attributions": [
               "Tyoapine Daniel"
            ],
            "width": 4160
         }
      ],
      "place_id": "ChIJOQCpW-siWhARFgZGycwk-ZU",
      "plus_code": {
         "compound_code": "3MJG+Q4 Chini, Nigeria",
         "global_code": "6FXC3MJG+Q4"
      },
      "rating": 3.7,
      "reference": "CmRSAAAAXZvScDpalSu2-cs2QqmaESksXxz2LvvqZEiaVVYB5KdQy3H0VieHi0TlccswihvQg7NkBQESVN0wVJ6_nzBxQh6rqLDbneYb2vLqfiwMasDd4y4AS8EYbLhHS-EacsZQEhAbICyrwbQkYK0BK63fQ2aVGhQgDomHGqVBEvW9dMI_x0a1HiRq-w",
      "types": [
         "university",
         "point_of_interest",
         "establishment"
      ],
      "html_attributions": []
   },
   {
      "formatted_address": "Along Port Harcourt/ Aba Expressway, Rumuobiakani, At Slaughter Round About, Transamadi, Aba Road, Port Harcourt, Nigeria",
      "geometry": {
         "location": {
            "lat": 9.0667169,
            "lng": 8.678014899999994
         },
         "viewport": {
            "south": 9.065367919708498,
            "west": 8.676665919708512,
            "north": 9.068065880291503,
            "east": 8.679363880291476
         }
      },
      "icon": "https://maps.gstatic.com/mapfiles/place_api/icons/gas_station-71.png",
      "id": "40ddabe02de032a1b58e03957b60f957a2597e1b",
      "name": "Total Rumuobiakani Service Station",
      "opening_hours": {
         "open_now": true
      },
      "place_id": "ChIJSSzS-5XNaRAR2TxSzaVc52Q",
      "plus_code": {
         "compound_code": "3M8H+M6 Chini, Nigeria",
         "global_code": "6FXC3M8H+M6"
      },
      "reference": "CmRRAAAAMgh-g3jLgMY9KViMpKthtrqLiKyAWyzsiahTtSr2pp6Rr--OE0Yzvfuf0BrChovrRpXAcdvKx7HjTKouBtJukDhmadWTDGdzlXnZHn-kXouyP2LfzK8MfOZuoEMz8VLLEhB_c3a3UUQjnywoTQppd3UxGhRmpIfJdD6aXigheCOAZCt96KiUQg",
      "types": [
         "gas_station",
         "point_of_interest",
         "establishment"
      ],
      "html_attributions": []
   },
   {
      "formatted_address": "23/ 25, Itire Road,, Near Lawanson Bus Stop,, Lagos, Nigeria",
      "geometry": {
         "location": {
            "lat": 9.066844000000001,
            "lng": 8.67754279999997
         },
         "viewport": {
            "south": 9.0654950197085,
            "west": 8.676193819708487,
            "north": 9.068192980291505,
            "east": 8.678891780291451
         }
      },
      "icon": "https://maps.gstatic.com/mapfiles/place_api/icons/gas_station-71.png",
      "id": "c854b48be4be8209815820023ac580d27999f954",
      "name": "Total Itire Service Station",
      "opening_hours": {
         "open_now": true
      },
      "place_id": "ChIJBWXjtTqMOxAR-Xe7-koJbfs",
      "plus_code": {
         "compound_code": "3M8H+P2 Chini, Nigeria",
         "global_code": "6FXC3M8H+P2"
      },
      "reference": "CmRSAAAARkyRSBI9ubp5BOX12ngzQApPsZWKesx18aWfY8N2_4z8-0W5W5-MJuO6LJxKe-1NwxWtudUz-I-QkOBiQWC3omeFaM-zNI91vYo6Qrq1g_FeINJsxal5tGkR4aqWlbb4EhBy666Iiu5DdCn3Pn-kwIwnGhRj4NdzyYvuzVhO1UGovcsyXpMjww",
      "types": [
         "gas_station",
         "point_of_interest",
         "establishment"
      ],
      "html_attributions": []
   },
   {
      "formatted_address": "Plot No. 12, Apapa Oshodi Expressway, Amuwo Odofin,, Near 1st Rainbow Bus Stop,, Lagos, Nigeria",
      "geometry": {
         "location": {
            "lat": 9.066844,
            "lng": 8.67771449999998
         },
         "viewport": {
            "south": 9.065495019708498,
            "west": 8.676365519708497,
            "north": 9.068192980291503,
            "east": 8.679063480291461
         }
      },
      "icon": "https://maps.gstatic.com/mapfiles/place_api/icons/gas_station-71.png",
      "id": "738339f0202c35aadc292e507167222d6336a234",
      "name": "Total Amuwo Service Station 1",
      "opening_hours": {
         "open_now": true
      },
      "photos": [
         {
            "height": 1296,
            "html_attributions": [
               "Total - Amuwo Service Station 1"
            ],
            "width": 1936
         }
      ],
      "place_id": "ChIJV11aRLGOOxARlYAReyerkMo",
      "plus_code": {
         "compound_code": "3M8H+P3 Chini, Nigeria",
         "global_code": "6FXC3M8H+P3"
      },
      "reference": "CmRSAAAAKYu9eIb67hkRXZaPooBw_4wlm0w75VCtoHXlS2szCYyBNBHmTqfCNpAHAgnAGm7-1tz7S3UOklTUrQp4DUX2C0-jABESwcQOqJhqDRa4vDm9x7wbI7BIRebpH-Px4KfsEhA06d5zHNNpbSpxab20wL80GhRwFcJYfq5RFd7To4GGRH8MmmtjqQ",
      "types": [
         "gas_station",
         "point_of_interest",
         "establishment"
      ],
      "html_attributions": []
   },
   {
      "formatted_address": "Beere Square, Mutlad, Ibadan, Nigeria",
      "geometry": {
         "location": {
            "lat": 9.0666321,
            "lng": 8.677886199999989
         },
         "viewport": {
            "south": 9.065283119708498,
            "west": 8.676537219708507,
            "north": 9.067981080291503,
            "east": 8.679235180291471
         }
      },
      "icon": "https://maps.gstatic.com/mapfiles/place_api/icons/gas_station-71.png",
      "id": "b5cca7ec9fcbff8db979569995795e4f11c931ba",
      "name": "Total Beere Square Filling Station",
      "opening_hours": {
         "open_now": true
      },
      "place_id": "ChIJg2CQfpeSORARShub_PxG7IA",
      "plus_code": {
         "compound_code": "3M8H+M5 Chini, Nigeria",
         "global_code": "6FXC3M8H+M5"
      },
      "reference": "CmRSAAAAsLeyT2vY-leY2QJ2uLO3JA5p191kHKZfFXe3_Bs5zy04aE17ynsdbQKY8MkgRb2fWEBX1RzlAiqkhbf3PN2x8dcWNAFHDRETQrTvvomDtj6glejJq8eSSnvjxSwyI5krEhBzqghDieix_glWNnG_K88sGhSBzzk19SjJMbSigvJgN001X8wHwg",
      "types": [
         "gas_station",
         "point_of_interest",
         "establishment"
      ],
      "html_attributions": []
   },
   {
      "formatted_address": "Idi Ape Road, Testing Ground, Opposite Police Area Command, Ibadan, Nigeria",
      "geometry": {
         "location": {
            "lat": 9.0669711,
            "lng": 8.677628700000014
         },
         "viewport": {
            "south": 9.065622119708497,
            "west": 8.676279719708532,
            "north": 9.068320080291501,
            "east": 8.678977680291496
         }
      },
      "icon": "https://maps.gstatic.com/mapfiles/place_api/icons/gas_station-71.png",
      "id": "9d94d28f4f22a1a5fe46b33f01c4316c1f8ffe71",
      "name": "Total Iwo Road Service Station",
      "opening_hours": {
         "open_now": true
      },
      "photos": [
         {
            "height": 1296,
            "html_attributions": [
               "Total Iwo Road Service Station"
            ],
            "width": 1936
         }
      ],
      "place_id": "ChIJg2CQfpeSORARMNLcE2LvYs4",
      "plus_code": {
         "compound_code": "3M8H+Q3 Chini, Nigeria",
         "global_code": "6FXC3M8H+Q3"
      },
      "reference": "CmRSAAAAlcdt_azahainqk5z3g1GnDNKlfWD8GnUmMGuRzoU_2WBNcLYENajmuckD66zGFpAliqYIOudBBtVR1ZVlOLK6cZm9do84lYEuZ_biva5EiqQ4lNLsttoQvsHPTK9TV67EhAy-oIgesKA5vyTOiwMgehEGhR3bYwIr4_luA5Yu-1RrXo1XuR60Q",
      "types": [
         "gas_station",
         "point_of_interest",
         "establishment"
      ],
      "html_attributions": []
   },
   {
      "formatted_address": "Benin Asaba Lorry Park, Agboro Junction,, From benin Asaba express, 1st total station on the right, Opposite NNPC Station, 320211, Asaba, Nigeria",
      "geometry": {
         "location": {
            "lat": 9.0662931,
            "lng": 8.677457000000004
         },
         "viewport": {
            "south": 9.064944119708498,
            "west": 8.676108019708522,
            "north": 9.067642080291503,
            "east": 8.678805980291486
         }
      },
      "icon": "https://maps.gstatic.com/mapfiles/place_api/icons/gas_station-71.png",
      "id": "b9a981c5af80625f7126f5bcb91407c4da039cb5",
      "name": "Total Agbor Service Station",
      "opening_hours": {
         "open_now": true
      },
      "photos": [
         {
            "height": 1296,
            "html_attributions": [
               "Total Agbor Service Station"
            ],
            "width": 1936
         }
      ],
      "place_id": "ChIJmUiNkXnyQxARGH2rG2AqX3w",
      "plus_code": {
         "compound_code": "3M8G+GX Chini, Nigeria",
         "global_code": "6FXC3M8G+GX"
      },
      "rating": 3,
      "reference": "CmRRAAAAcnGmu2EO21RE7B1sNx3hcED4ftl6FTT6qDduB4oHNWuY0umYCJdJAubv-Sw81qaeB9jOmjiNFMtwdIl6nqb3f2pDcqkXlD5SNSy-6CE3ZLQOjM2k88qYRYT4-U622R4DEhDO2_jfYB4iICjRV37vMuaRGhSNZLUo6FDSlm1XaW36nngl1zBd4w",
      "types": [
         "gas_station",
         "point_of_interest",
         "establishment"
      ],
      "html_attributions": []
   },
   {
      "formatted_address": "82, Agbani Road,, Near Aso Bus Stop,, Enugu,, Nigeria",
      "geometry": {
         "location": {
            "lat": 9.0665897,
            "lng": 8.67771449999998
         },
         "viewport": {
            "south": 9.065240719708498,
            "west": 8.676365519708497,
            "north": 9.067938680291501,
            "east": 8.679063480291461
         }
      },
      "icon": "https://maps.gstatic.com/mapfiles/place_api/icons/gas_station-71.png",
      "id": "f32cecdc74276dbb79ed8ecd2a22364ff1d4e2d3",
      "name": "Total Agbani Service Station",
      "opening_hours": {
         "open_now": true
      },
      "photos": [
         {
            "height": 1836,
            "html_attributions": [
               "Onyedika Benjamin Jideani"
            ],
            "width": 3264
         }
      ],
      "place_id": "ChIJKVLxDh2hRBAR0FfwmAYGV58",
      "plus_code": {
         "compound_code": "3M8H+J3 Chini, Nigeria",
         "global_code": "6FXC3M8H+J3"
      },
      "rating": 4.3,
      "reference": "CmRSAAAAg-iSi7pnURHu3dH8ue15u_dchYSX3Ooa3Yho88mDBJ-p6njTapZ0r_RV5lQODE5bVW5b1C_Op8CSctHYjaS91MBEg8BD0PIZSdchnXuu6h_kkqsz0dEu0IWYRUdukEJWEhDPor2gsp5pidgy9w7j6FBMGhRdKl_XM9CScZ2jVDiWZ69osa7Lmg",
      "types": [
         "gas_station",
         "point_of_interest",
         "establishment"
      ],
      "html_attributions": []
   },
   {
      "formatted_address": "Nigeria",
      "geometry": {
         "location": {
            "lat": 9.081999,
            "lng": 8.675277100000017
         },
         "viewport": {
            "south": 9.080650019708498,
            "west": 8.673928119708535,
            "north": 9.083347980291503,
            "east": 8.676626080291499
         }
      },
      "icon": "https://maps.gstatic.com/mapfiles/place_api/icons/school-71.png",
      "id": "7304dd2a3495536d3fef82e318b112d0f1f1647d",
      "name": "Western Delta University",
      "photos": [
         {
            "height": 3264,
            "html_attributions": [
               "Bonus Jeff"
            ],
            "width": 1840
         }
      ],
      "place_id": "ChIJrTnfvNzjQBARo9Y_kjEyBAU",
      "plus_code": {
         "compound_code": "3MJG+Q4 Chini, Nigeria",
         "global_code": "6FXC3MJG+Q4"
      },
      "rating": 4.3,
      "reference": "CmRRAAAAwpYmE9EcUIkaBxySLsBil_kHP3sU769E4YBFQJUnWnQZMkzYtcbRzWeuaJ28y0V3jDJmdSfxcAVctZ8tDewAeDSEiS8NIM9PswclpOR4smdSJWyaIFGn4Dbh_m4AKShtEhDY1IybIyR3iQV_WnYRVBtyGhTKlLoMNDY9j1ej8oDv8fB6xRZF6A",
      "types": [
         "university",
         "point_of_interest",
         "establishment"
      ],
      "html_attributions": []
   },
   {
      "formatted_address": "Nigeria",
      "geometry": {
         "location": {
            "lat": 9.081999000000001,
            "lng": 8.675277000000051
         },
         "viewport": {
            "south": 9.0806500197085,
            "west": 8.673928019708455,
            "north": 9.083347980291505,
            "east": 8.676625980291533
         }
      },
      "icon": "https://maps.gstatic.com/mapfiles/place_api/icons/generic_business-71.png",
      "id": "d9168f4f44c6acdff7979be44fd2ab3d3122438c",
      "name": "Amazing property Nigeria",
      "place_id": "ChIJITnAvaZiURARdGoTVX500Ng",
      "plus_code": {
         "compound_code": "3MJG+Q4 Chini, Nigeria",
         "global_code": "6FXC3MJG+Q4"
      },
      "reference": "CmRSAAAANFIEQRkohKLfpc_av01M1jfuKI9lGKxCoxGJrXjfN3-1VoIIaVlBp2FP11aLG21sFX2CdRlEtmTGSs0DfZFWyGWvuw_Zr5m1c4V8dPj4B4l3pveY38gaWrX_mllkIyi3EhDyuE3KT4L2Vx5tPDWDS414GhRaVJZbtpTiq0QHWUxnuhK92NSXMQ",
      "types": [
         "real_estate_agency",
         "point_of_interest",
         "establishment"
      ],
      "html_attributions": []
   },
   {
      "formatted_address": "12 WAO street olosun road otta, 112101, Otta, Nigeria",
      "geometry": {
         "location": {
            "lat": 9.081999000000001,
            "lng": 8.675277000000051
         },
         "viewport": {
            "south": 9.0806500197085,
            "west": 8.673928019708455,
            "north": 9.083347980291505,
            "east": 8.676625980291533
         }
      },
      "icon": "https://maps.gstatic.com/mapfiles/place_api/icons/generic_business-71.png",
      "id": "0dc7ab7b4bf597c5193919c9336e63c2790f767e",
      "name": "Ota Market Online",
      "opening_hours": {
         "open_now": true
      },
      "place_id": "ChIJITnAvaZiURARmVnHWKBIaho",
      "plus_code": {
         "compound_code": "3MJG+Q4 Chini, Nigeria",
         "global_code": "6FXC3MJG+Q4"
      },
      "reference": "CmRRAAAAFMBHH8juKxKhMQQoiKmoQ_RQDD9t3CokP2YShnCwqmE5d1IOuWhMKaEV35MBviO6o_26aFDV9RAVegSUzClpGoHw2eOS8K4HnYoIvRVr5wqXDc7KGs-yXDjFzH3bAGNAEhDXzHTkQSHd_k0uJWgxs4TeGhQqw2EsnhfM6o2Zaob58BUfCo_qGg",
      "types": [
         "point_of_interest",
         "establishment"
      ],
      "html_attributions": []
   },
   {
      "formatted_address": "Suite 78 Sebuff Plaza, Osapa, 101245, Lekki, Nigeria",
      "geometry": {
         "location": {
            "lat": 9.081999000000001,
            "lng": 8.675277000000051
         },
         "viewport": {
            "south": 9.0806500197085,
            "west": 8.673928019708455,
            "north": 9.083347980291505,
            "east": 8.676625980291533
         }
      },
      "icon": "https://maps.gstatic.com/mapfiles/place_api/icons/generic_business-71.png",
      "id": "0535e03dc3811cb9be358332d97d799a8abe9e51",
      "name": "FCM Facility Cleaning & Maintenance Ltd.",
      "opening_hours": {
         "open_now": true
      },
      "photos": [
         {
            "height": 2322,
            "html_attributions": [
               "Jerry Omoruyi"
            ],
            "width": 4128
         }
      ],
      "place_id": "ChIJ6dcos2L2OxARE_mkJt_Zb_4",
      "plus_code": {
         "compound_code": "3MJG+Q4 Chini, Nigeria",
         "global_code": "6FXC3MJG+Q4"
      },
      "rating": 5,
      "reference": "CmRSAAAA7fr4IVYYz3Rzv7Bv-sAFwZ3CBdPQHhoz6wk3nM3VeAoRPxLyV5hHVLAU8IWlfEBg3TruxKWiCBPagM4psQYWwBNLh-G95D-4dfT50vkBpyVDoVeQt4BFPhYSMTFea66oEhDU1kgW9qC4wsJkHnmkjODCGhQxmfHH5gAuYqoRmkdEjIt0HDtaFA",
      "types": [
         "home_goods_store",
         "store",
         "general_contractor",
         "point_of_interest",
         "establishment"
      ],
      "html_attributions": []
   },
   {
      "formatted_address": "Nasarawa, Nigeria",
      "geometry": {
         "location": {
            "lat": 9.081999000000001,
            "lng": 8.675277000000051
         },
         "viewport": {
            "south": 9.0806500197085,
            "west": 8.673928019708455,
            "north": 9.083347980291505,
            "east": 8.676625980291533
         }
      },
      "icon": "https://maps.gstatic.com/mapfiles/place_api/icons/shopping-71.png",
      "id": "5aab7303df1e5210eaaeb8bb7544b7b18d84bc8b",
      "name": "Bravo Supermarket",
      "opening_hours": {
         "open_now": false
      },
      "place_id": "ChIJITnAvaZiURARJzziHAX3myk",
      "plus_code": {
         "compound_code": "3MJG+Q4 Chini, Nigeria",
         "global_code": "6FXC3MJG+Q4"
      },
      "rating": 4.7,
      "reference": "CmRRAAAARM6EpcK_vX6yjP4GNa-HjeCmxzCvkwcsgbfOZ7ALA4m9yekS8hguMtCQw9PsP_jbCVzi20I4cQV89WrU493RqXXyTcEaJt7GlYhSbU-Th5bdVFkS7Q6D6SM38VuCIzvvEhCalJS50ndxUORJACNOk7WHGhSnu2GL_kuJaB15GpPJeSkCqDUDiw",
      "types": [
         "grocery_or_supermarket",
         "store",
         "food",
         "point_of_interest",
         "establishment"
      ],
      "html_attributions": []
   },
   {
      "formatted_address": "No 7, Ayodele Alaba, Progressive Estate, off Anwo Bus Stop, Akute, 112212, Akute, Nigeria",
      "geometry": {
         "location": {
            "lat": 9.081999000000001,
            "lng": 8.675277000000051
         },
         "viewport": {
            "south": 9.0806500197085,
            "west": 8.673928019708455,
            "north": 9.083347980291505,
            "east": 8.676625980291533
         }
      },
      "icon": "https://maps.gstatic.com/mapfiles/place_api/icons/shopping-71.png",
      "id": "9f686a84e6990a98d68836445abd2a1eac224aa3",
      "name": "Kellas Business Ideas",
      "opening_hours": {
         "open_now": true
      },
      "photos": [
         {
            "height": 2960,
            "html_attributions": [
               "Kellas Business Ideas"
            ],
            "width": 1664
         }
      ],
      "place_id": "ChIJITnAvaZiURAROXKpSJzkja0",
      "plus_code": {
         "compound_code": "3MJG+Q4 Chini, Nigeria",
         "global_code": "6FXC3MJG+Q4"
      },
      "reference": "CmRSAAAANlpt-XsxHKivlR53jpFW6YqdvttVc2JKMDfvyB6OSEvDO9sYniB_lrquQowPpXPvMz3QT86rum4Yl-zmqa0UcrwaLxrlcPxge-aLQBnu4xVy3tNQoPUPrONCKtug8vJ4EhCUkmOgpFjVgcXSUuFcJS5oGhSklMmvEKIufxAvGPu1G3QsyRjXow",
      "types": [
         "store",
         "general_contractor",
         "food",
         "point_of_interest",
         "establishment"
      ],
      "html_attributions": []
   },
   {
      "formatted_address": "Block 3, SOD quarters, Canaan Land Rd, Mowe, Nigeria",
      "geometry": {
         "location": {
            "lat": 9.081999,
            "lng": 8.675406000000066
         },
         "viewport": {
            "south": 9.080650019708498,
            "west": 8.67405701970847,
            "north": 9.083347980291503,
            "east": 8.676754980291435
         }
      },
      "icon": "https://maps.gstatic.com/mapfiles/place_api/icons/generic_business-71.png",
      "id": "0d3334476f536c73d5a88685f74e6535f5056a8f",
      "name": "Gofglovent",
      "opening_hours": {
         "open_now": true
      },
      "place_id": "ChIJKbenSyfBOxARudX2d0oCtSI",
      "plus_code": {
         "compound_code": "3MJG+Q5 Chini, Nigeria",
         "global_code": "6FXC3MJG+Q5"
      },
      "rating": 5,
      "reference": "CmRRAAAAvTK4haF9sxtm7ug40tv8TPcIvyBDGrMqbtii0besz_gQIroEHPCyD7JAXRoiXXXhoWsoX_Sy-bqO5zB0RFRHD0wNbBXJ3P1QrT63_kfil-tuWZ2Fv4tDOS5OLOI1jRLKEhC1UW1UhI4Shat3zaYZCZyoGhT4V0HVRnMHqWVleRTtb5OAf3uJdg",
      "types": [
         "point_of_interest",
         "establishment"
      ],
      "html_attributions": []
   },
   {
      "formatted_address": "Unnamed Rd, Nigeria",
      "geometry": {
         "location": {
            "lat": 9.0823804,
            "lng": 8.675319899999977
         },
         "viewport": {
            "south": 9.081031419708498,
            "west": 8.673970919708495,
            "north": 9.083729380291501,
            "east": 8.676668880291572
         }
      },
      "icon": "https://maps.gstatic.com/mapfiles/place_api/icons/generic_business-71.png",
      "id": "17b215954a0f6b7aca46ce70fb9b17e17994a80f",
      "name": "SuccessTrend",
      "opening_hours": {
         "open_now": true
      },
      "place_id": "ChIJJUGFv6ZiURARjFDSO9B-7uQ",
      "plus_code": {
         "compound_code": "3MJG+X4 Chini, Nigeria",
         "global_code": "6FXC3MJG+X4"
      },
      "reference": "CmRSAAAAgapNsAZfgz9MsenmwHcVcI8x3fp4vZ6loVtCKfg-36aUh0wogPd2gmwwx5HBQp1rPC1hkUygaIWOImLJ0Xoto0INeYUJBXW_rdSzwtpNXBk_gNPdD2Aqkyy6SDu8i8RzEhBdQkXgq-AsV2fBFvpGKunNGhSt11c0aZXNPl1vFJtTBICUbLU5Lg",
      "types": [
         "point_of_interest",
         "establishment"
      ],
      "html_attributions": []
   }
]